{
  "type": "service_account",
  "project_id": "qa-automation-30102019",
  "private_key_id": "c6d714b00d25a0314125a562ffe0c6e6e26cd585",
  "private_key": "-----BEGIN PRIVATE KEY-----\nMIIEvgIBADANBgkqhkiG9w0BAQEFAASCBKgwggSkAgEAAoIBAQCdBVmGCaKLtr1V\nWlAx6bLqVnXZXeSpQkx9ftcPffPCVtt/vUXznKhPK+MqcEIAQqHddDkwzQXrn4Sa\nb6cUcXmROVZbIi8HDaLzfBhyTfJsR5ON0xYsnjC2FwC3O7tY1um2U9NEZVCFfaHJ\n261JKtRerRgsTo5frKArmymQZNQB0HeHoOFxXZmK0T6cH+J9ymW3o7aaE9xtzpXM\n0oZwOpBy3jReSGdMRhL/5FQEn1MwdvApm9/VY24aSe6gMrF7uLYdJsv/tzeKow7S\nBch2FLwKLezFRdH4ERk/Fy9FQvt4D5x5L3jKHpSEUhHgju1up78+aCkIUFGeQ54N\n3M249mZ7AgMBAAECggEAE6UxM69t6kwFOTIQ+YWzMFV77iOssa6NUmA1uQb5ofVr\nBfrgzx9pAWrMw6kC4PR1OvdJFn14QagWF5pjjY+69Xv2fXVz6859djgu+NIexARa\nhjKEQjXSg12yZbpv8KgG2px3QMXqQqFaxh4Zep+ErYm7jgOQFZFMAtipZRrwWX+Q\n4UqHBytEq7fGUJY+lVUHsDA75j+7IfD+Fxwnb6l90LAXN7LtLM7vg6xystz6fDc9\nixb/oixW+fAOLzaCUCA+ct7DuTraxVLZ6r5lxwtWNPXTiupJYvHl7XLRcdAql+xD\n4WQ5TKKRgBD+VFO8578xhe4FRMETYw6E7WtDL7hzRQKBgQDJ5helTI6nn07NbmvO\nrSOcjFJ/Vy8hAVOw6KvUr2PbmXUhLE3HN00mv18vU4vxvu7zB2allklkrKQZTVin\nhexig/X+Eo66eRr6YP6+pHLcGqxyW3NmzcHjjI1ks/YQHmALzEpmcOH6Xw82ADWD\nlzjxX63ckIFRfuwG/jvx8a23hQKBgQDHGLYLFrvfq+XJohRT5QUa5mn8wL4xZ3MS\neKXvj9LF8/eai/BjfUuWS8rNYwxAU70qmOkSTxaBD2Or2my3YBL2chxB/f/qknDj\n86HpWbURbYes8AxTLhQMlWanqG6cM4WkExhI0ZlzTUmHJaSiWk9XFZUXmgA7dGBp\nHuPDQSsF/wKBgQC+mhgMl1+9YyoTyoDAVrfd3KMtUHNPp18JDj7ZxNJyyEbJkHfE\n8LJHODd2CFt/V49ho8UF4gFbp5grwtdFH6tvvcCHoaFY7WfIo7Ua6Uj9/bh7JVam\n4OyAE3qQbUyJHwPxX2WFnF/Z69ACXOQoXKUHShpqtYlAFKBiYbTZzhz/uQKBgQCS\nI7BUGV7UAlBMHZ1AK2YA5co8TZoNl3qev1JFstMqnDZOCZPs4yZdbsqw0ZhHi2/Z\n2Z2S49yH5SzrEwwj2fBxVzcotXFo1A7rM4TQTRmcbkJdjWHumG79AZj1TavLGgJp\ned6kbL1vJfbnrZjX1uRP7raeOVscSQMPhi32v1n+LwKBgFsvW2G3dC8EPWWD76KT\nrejWJeU8yMbtU3ECO9VpMmH8FuhHul7pV4SIEkX3Njx8pzOp9mI4OuOzDMIJeB8A\n2pxYozwhDq3xSFnyflxCyIkWdF66RmB7OWt0kb/Bh5q82EE5/021BSTVMzlOohFn\nnWJHHjsnPOcuKU47NKOQSrum\n-----END PRIVATE KEY-----\n",
  "client_email": "reports-automation@qa-automation-30102019.iam.gserviceaccount.com",
  "client_id": "117033577168629367914",
  "auth_uri": "https://accounts.google.com/o/oauth2/auth",
  "token_uri": "https://oauth2.googleapis.com/token",
  "auth_provider_x509_cert_url": "https://www.googleapis.com/oauth2/v1/certs",
  "client_x509_cert_url": "https://www.googleapis.com/robot/v1/metadata/x509/reports-automation%40qa-automation-30102019.iam.gserviceaccount.com"
}
